﻿[{
    "_id": "co-1000",
    "_parentId": "course",
    "_type": "page",
    "_classes": "",
    "title": "مقدمة",
    "displayTitle": "مقدمة",
    "pageBody": "",
    "body": "<br>يمكنك استخدام أداة تخطيط الحملات الإعلانية لإنشاء خطط إعلامية ومقارنتها ومشاركتها من أجل الحملات الإعلانية للوصول وتكرار الظهور.",
    "_graphic": {
        "src": "course/en/images/contentObjects/landing_1.png",
        "alt": "Lorem ipsum dolor"
    },
    "linkText": "عرض",
    "height": "570",
    "durationLabel": "المدة:",
    "duration": "دقيقتان",
    "_pageLevelProgress": {
        "_isEnabled": true
    }
}, {
    "_id": "co-2000",
    "_parentId": "course",
    "_type": "page",
    "_classes": "",
    "title": "بدء استخدام أداة تخطيط الحملات الإعلانية",
    "displayTitle": "بدء استخدام أداة تخطيط الحملات الإعلانية",
    "pageBody": "",
    "body": "تعرف على كيفية تخطيط الحملات الإعلانية للوصول وتكرار الظهور بكفاءة وفعّالية أكبر.",
    "_graphic": {
        "src": "course/en/images/contentObjects/landing_2.png",
        "alt": "Lorem ipsum dolor"
    },
    "linkText": "عرض",
    "height": "570",
    "durationLabel": "المدة:",
    "duration": "4 دقائق",
    "_pageLevelProgress": {
        "_isEnabled": true
    }
}, {
    "_id": "co-3000",
    "_parentId": "course",
    "_type": "page",
    "_classes": "",
    "title": "اختبار مستوى المعرفة",
    "displayTitle": "اختبار مستوى المعرفة",
    "pageBody": "",
    "body": "دعنا نراجع ما تعلمته.",
    "_graphic": {
        "src": "course/en/images/contentObjects/landing_3.png",
        "alt": "Lorem ipsum dolor"
    },
    "linkText": "عرض",
    "height": "570",
    "durationLabel": "المدة:",
    "duration": "دقيقتان",
    "_pageLevelProgress": {
        "_isEnabled": true
    }
}
]